{
  "template": {
    "tag": "cells-template-paper-drawer-panel",
    "properties": {
      "disableEdgeSwipe": true,
      "headerFixed": true
    }
  },
  "components": [
    {
      "zone": "app__header",
      "tag": "cells-component-app-header",
      "properties": {
        "text": "Posición global"
      }
    },
    {
      "zone": "app__main",
      "familyPath" : "../../elements/profile-page",
      "tag": "profile-page",
      "properties": {
        "cellsConnections": {
          "in": {
            "ch_user_data":{
              "bind":"setProperties"
            },
            "ch_user_accounts_ok": {
              "bind": "showAccounts"
            }
          },
          "out": {
            "ch_set_prop": {
              "bind":"properties-setted"
            },
            "ch_transactions_info":{
              "bind":"cells-product-summary-more-info",
              "link": {
                "page":"transactions"
              }
            },
            "ch_navigation":{
              "bind":"cells-button-toolbar-clicked"
            },
            "ch_req_newaccount": {
                "bind":"request-create-newAccount"
            } 
          }
        }
      }
    },
    {
      "zone": "app__main",
      "familyPath" : "../../elements/profile-dm",
      "tag": "profile-dm",
      "properties": {
        "cellsConnections": {
          "in": {
            "ch_navigation": {
              "bind": "navigateTo"
            },
            "ch_set_prop":{
              "bind":"getAccountsById"
            },
            "ch_user_logged": {
              "bind": "loadUser"
            },
            "ch_request_newuser_ok": {
              "bind": "loadUser"
            },
            "ch_req_newaccount": {
              "bind": "createNewAccount"
            },"ch_nav_back":{
              "bind":"getAccountsById"
            }
           
          },
          "out": {
            "ch_load_user_start":{
              "bind":"loadUser-request-start"
            },
            "ch_user_data":{
              "bind":"profile-request-ok"
            },
            "ch_user_accounts_start":{
              "bind": "accounts-request-start"
            },
            "ch_user_accounts_ok": {
              "bind": "account-request-ok"
            },
            "ch_request_error": {
              "bind": "app-request-error",
              "link":{
                "page": "error"
              }
            },
            "ch_nav_op": {
              "bind":"nav-to-operations",
              "link": {
                "page": "operations"
              }
            },
            "ch_nav_profile": {
              "bind":"nav-to-home",
              "link": {
                "page": "profile"
              }
            },
            "ch_nav_logout": {
              "bind":"nav-to-logout",
              "link": {
                "page": "logout"
              }
            },
            "ch_nav_divisa": {
              "bind": "nav-to-divisa",
              "link": {
                "page": "currency-exchange"
              }
            }
          }
        }
      }
    },
    {
      "zone": "app__main",
      "tag": "cells-molecule-spinner-veil",
      "properties": {
        "cellsConnections": {
          "in": {
            "ch_request_newuser_ok": {
              "bind": "show"
            },
            "ch_user_logged": {
              "bind":"show"
            },
            "ch_user_accounts_ok":{
              "bind": "hide"
            },
            "ch_request_error": {
              "bind": "hide"
            } 
          },
          "out": {

          }
        }
      }
    }
    
    
  ]
}
